<?xml version="1.0" encoding="utf-8"?>
<!-- Generator: Adobe Illustrator 26.2.0, SVG Export Plug-In . SVG Version: 6.00 Build 0)  -->
<svg version="1.1" id="Ebene_1" xmlns="http://www.w3.org/2000/svg" xmlns:xlink="http://www.w3.org/1999/xlink" x="0px" y="0px"
	 viewBox="0 0 320 512" style="enable-background:new 0 0 320 512;" xml:space="preserve">
<style type="text/css">
	.st0{fill:#60556A;}
</style>
<path class="st0" d="M310.6,246.6l-127.1,128c-7.1,6.3-15.3,9.4-23.5,9.4s-16.4-3.1-22.6-9.4l-127.1-128c-10-9.1-12.8-22.9-7.8-34.8
	S19.1,192,32,192h255.1c12.9,0,24.6,7.8,29.6,19.8S319.8,237.5,310.6,246.6z"/>
</svg>
